begin
	imax			        192
	jmax			        96
	kmax			        96
  iproc             4
  jproc             2
  kproc             2
	ghost			        3
	n_iter			      10000
  subiter   	      15
	conv_space_order  5
	conv_time_order		3
	flux_form		      nonconservative
	dt			          0.001
	mu			          0.01
	screen_op_iter		5
  print_ls          0
  write_residual    1
	file_op_iter		  1000
	2d_mode			      no
	op_file_format		tecplot
	op_overwrite		  yes
	op_details		    basic
	write_restart		  no
	restart_run		    0
end
