inp           solver.inp
bc_inp        bc.inp
init          init.dat
init_restart  init_restart.dat
res           res.log
body          body.stl
output_prefix ./
fsbc_prefix   ./
body_forces   forces.dat
body_surface  surface_data.ply
